{
  "scm": "git",
  "has_wiki": false,
  "last_updated": "2014-09-25T19:36:42.979",
  "no_forks": false,
  "forks_count": 1,
  "created_on": "2014-09-23T18:40:12.835",
  "owner": "teamsinspace",
  "logo": "https://bitbucket.org/teamsinspace/teamsinspace.bitbucket.org/avatar/32/?ts=1411666602",
  "email_mailinglist": "",
  "is_mq": false,
  "size": 76152,
  "read_only": false,
  "fork_of": null,
  "mq_of": null,
  "followers_count": 2,
  "state": "available",
  "utc_created_on": "2014-09-23 16:40:12+00:00",
  "website": "",
  "description": "",
  "has_issues": false,
  "is_fork": false,
  "slug": "teamsinspace.bitbucket.org",
  "is_private": false,
  "name": "teamsinspace.bitbucket.org",
  "language": "",
  "utc_last_updated": "2014-09-25 17:36:42+00:00",
  "no_public_forks": false,
  "creator": null,
  "resource_uri": "/1.0/repositories/teamsinspace/teamsinspace.bitbucket.org"
}
